…
```r
function(data, truth, ...)
```

where `data` is a data frame or tibble and `truth` is the column with the observed outcome values. The ellipses or other arguments are used to specify the column(s) containing the predictions. 


To illustrate, let's take the model from Section \@ref(recipes-summary). The `lm_wflow_fit` object was a linear regression model whose predictor set was supplemented with an interaction and spline functions for longitude and latitude. It was created from a training set (named `ames_train`). Although we do not advise using the test set at this juncture of the modeling process, it will be used to illustrate functionality and syntax. The data frame `ames_test` consists of 588 properties. To start, let's produce predictions: 



```r
ames_test_res <- predict(lm_fit, new_data = ames_test %>% select(-Sale_Price))
ames_test_res
#> # A tibble: 588 × 1
#>   .pred
#>   <dbl>
#> 1  5.07
#> 2  5.17
#> 3  5.28
#> 4  5.05
#> 5  5.51
#> 6  5.42
#> # … with 582 more rows
```

The predicted numeric outcome from the regression model is named `.pred`. Let's match the predicted values with their corresponding observed outcome values: 


```r
ames_test_res <- bind_cols(ames_test_res, ames_test %>% select(Sale_Price))
ames_test_res
#> # A tibble: 588 × 2
#>   .pred Sale_Price
#>   <dbl>      <dbl>
#> 1  5.07       5.02
#> 2  5.17       5.24
#> 3  5.28       5.28
#> 4  5.05       5.06
#> 5  5.51       5.60
#> 6  5.42       5.33
#> # … with 582 more rows
```
…
In the output above, the `.estimator` value of "binary" indicates that the standard formula for binary classes will be used. 

There are numerous classification metrics that use the predicted probabilities as inputs rather than the hard class predictions. For example, the receiver operating characteristic (ROC) curve computes the sensitivity and specificity over a continuum of different event thresholds. The predicted class column is not used. There are two <span class="pkg">yardstick</span> functions for this method: `roc_curve()` computes the data points that make up the ROC curve and `roc_auc()` computes the area under the curve. 

The interfaces to these types of metric functions use the `...` argument placeholder to pass in the appropriate class probability column. For two-class problems, the probability column for the event of interest is passed into the function:


```r
two_class_curve <- roc_curve(two_class_example, truth, Class1)
two_class_curve
#> # A tibble: 502 × 3
#>   .threshold specificity sensitivity
#>        <dbl>       <dbl>       <dbl>
#> 1 -Inf           0                 1
#> 2    1.79e-7     0                 1
#> 3    4.50e-6     0.00413           1
#> 4    5.81e-6     0.00826           1
#> 5    5.92e-6     0.0124            1
#> 6    1.22e-5     0.0165            1
#> # … with 496 more rows
…
Finally, all of these performance metrics can be computed using <span class="pkg">dplyr</span> groupings. Recall that these data have a column for the resampling groups. Passing a grouped data frame to the metric function will compute the metrics for each group: 


```r
hpc_cv %>% 
  group_by(Resample) %>% 
  accuracy(obs, pred)
#> # A tibble: 10 × 4
#>   Resample .metric  .estimator .estimate
#>   <chr>    <chr>    <chr>          <dbl>
#> 1 Fold01   accuracy multiclass     0.726
#> 2 Fold02   accuracy multiclass     0.712
#> 3 Fold03   accuracy multiclass     0.758
#> 4 Fold04   accuracy multiclass     0.712
#> 5 Fold05   accuracy multiclass     0.712
#> 6 Fold06   accuracy multiclass     0.697
#> # … with 4 more rows
```
…
