…
Using _V_ = 3 is a good choice to illustrate cross-validation but is a poor choice in practice. Values of _V_ are most often 5 or 10; we generally prefer 10-fold cross-validation as a default. 

:::rmdnote
What are the effects of changing _V_? Larger values result in resampling estimates with small bias but substantial noise. Smaller values of _V_ have large bias but low noise. We prefer 10-fold since noise is reduced by replication, as shown below, but bias is not. See [Section **3.4**](https://bookdown.org/max/FES/resampling.html) of @fes for a longer description. 
:::

The primary input is the training set data frame as well as the number of folds (defaulting to 10): 


```r
set.seed(55)
ames_folds <- vfold_cv(ames_train, v = 10)
ames_folds
#> #  10-fold cross-validation 
#> # A tibble: 10 × 2
#>   splits             id    
#>   <list>             <chr> 
#> 1 <split [2107/235]> Fold01
#> 2 <split [2107/235]> Fold02
#> 3 <split [2108/234]> Fold03
#> 4 <split [2108/234]> Fold04
#> 5 <split [2108/234]> Fold05
#> 6 <split [2108/234]> Fold06
#> # … with 4 more rows
```
…
To create _R_ repeats of _V_-fold cross-validation, the same fold generation process is done _R_ times to generate _R_ collections of _V_ partitions. Now, instead of averaging _V_ statistics, $V \times R$ statistics produce the final resampling estimate. Due to the Central Limit Theorem, the summary statistics from each model tend toward a normal distribution. 

Consider the Ames data. On average, 10-fold cross-validation uses assessment sets that contain roughly 234 properties. If RMSE is the statistic of choice, we can denote that estimate's standard deviation as $\sigma$. With simple 10-fold cross-validation, the standard error of the mean RMSE is $\sigma/\sqrt{10}$. If this is too noisy, repeats reduce the standard error to $\sigma/\sqrt{10R}$. For 10-fold cross-validation with $R$ replicates, the plot below shows how quickly the standard error^[These are _approximate_ standard errors. As will be discussed in the next chapter, there is a within-replicate correlation that is typical of resampled results. By ignoring this extra component of variation, the simple calculations shown in this plot are overestimates of the reduction in noise in the standard errors.] decreases with replicates: 

<img src="figures/resampling-cv-reduction-1.svg" width="672" style="display: block; margin: auto;" />

Larger number of replicates tend to have less impact on the standard error. However, if the baseline value of $\sigma$ is impractically large, the diminishing returns on replication may still be worth the extra computational costs. 

To create repeats, invoke `vfold_cv()` with an additional argument `repeats`: 


```r
vfold_cv(ames_train, v = 10, repeats = 5)
#> #  10-fold cross-validation repeated 5 times 
#> # A tibble: 50 × 3
#>   splits             id      id2   
#>   <list>             <chr>   <chr> 
#> 1 <split [2107/235]> Repeat1 Fold01
#> 2 <split [2107/235]> Repeat1 Fold02
#> 3 <split [2108/234]> Repeat1 Fold03
#> 4 <split [2108/234]> Repeat1 Fold04
#> 5 <split [2108/234]> Repeat1 Fold05
#> 6 <split [2108/234]> Repeat1 Fold06
#> # … with 44 more rows
```
### Leave-one-out cross-validation {-}

One early variation of cross-validation was leave-one-out (LOO) cross-validation where _V_ is the number of data points in the training set. If there are $n$ training set samples, $n$ models are fit using $n-1$ rows of the training set. Each model predicts the single excluded data point. At the end of resampling, the $n$ predictions are pooled to produce a single performance statistic. 

Leave-one-out methods are deficient compared to almost any other method. For anything but pathologically small samples, LOO is computationally excessive and it may not have good statistical properties. Although <span class="pkg">rsample</span> contains a `loo_cv()` function, these objects are not generally integrated into the broader tidymodels frameworks.  

### _Monte Carlo_ cross-validation {-}

Finally, another variant of _V_-fold cross-validation is _Monte Carlo_ cross-validation (MCCV, @xu2001monte). Like _V_-fold cross-validation, it allocates a fixed proportion of data to the assessment sets. The difference is that, for MCCV, this proportion of the data is randomly selected each time. This results in assessment sets that are not mutually exclusive. To create these resampling objects: 


```r
mc_cv(ames_train, prop = 9/10, times = 20)
#> # Monte Carlo cross-validation (0.9/0.1) with 20 resamples  
#> # A tibble: 20 × 2
#>   splits             id        
#>   <list>             <chr>     
#> 1 <split [2107/235]> Resample01
#> 2 <split [2107/235]> Resample02
#> 3 <split [2107/235]> Resample03
#> 4 <split [2107/235]> Resample04
#> 5 <split [2107/235]> Resample05
#> 6 <split [2107/235]> Resample06
#> # … with 14 more rows
```
…
For our example, let's save the predictions in order to visualize the model fit and residuals: 


```r
keep_pred <- control_resamples(save_pred = TRUE, save_workflow = TRUE)

set.seed(130)
rf_res <- 
  rf_wflow %>% 
  fit_resamples(resamples = ames_folds, control = keep_pred)
rf_res
#> # Resampling results
#> # 10-fold cross-validation 
#> # A tibble: 10 × 5
#>   splits             id     .metrics         .notes           .predictions      
#>   <list>             <chr>  <list>           <list>           <list>            
#> 1 <split [2107/235]> Fold01 <tibble [2 × 4]> <tibble [0 × 1]> <tibble [235 × 4]>
#> 2 <split [2107/235]> Fold02 <tibble [2 × 4]> <tibble [0 × 1]> <tibble [235 × 4]>
#> 3 <split [2108/234]> Fold03 <tibble [2 × 4]> <tibble [0 × 1]> <tibble [234 × 4]>
#> 4 <split [2108/234]> Fold04 <tibble [2 × 4]> <tibble [0 × 1]> <tibble [234 × 4]>
#> 5 <split [2108/234]> Fold05 <tibble [2 × 4]> <tibble [0 × 1]> <tibble [234 × 4]>
#> 6 <split [2108/234]> Fold06 <tibble [2 × 4]> <tibble [0 × 1]> <tibble [234 × 4]>
#> # … with 4 more rows
```
…
These are the resampling estimates averaged over the individual replicates. To get the metrics for each resample, use the option `summarize = FALSE` 

Notice how much more realistic the performance estimates are than the resubstitution estimates from Section \@ref(resampling-resubstition)!

To obtain the assessment set predictions: 


```r
assess_res <- collect_predictions(rf_res)
assess_res
#> # A tibble: 2,342 × 5
#>   id     .pred  .row Sale_Price .config             
#>   <chr>  <dbl> <int>      <dbl> <chr>               
#> 1 Fold01  5.14    12       5.11 Preprocessor1_Model1
#> 2 Fold01  5.15    49       5.10 Preprocessor1_Model1
#> 3 Fold01  4.96    54       4.93 Preprocessor1_Model1
#> 4 Fold01  5.04    84       5.05 Preprocessor1_Model1
#> 5 Fold01  5.19    99       5.05 Preprocessor1_Model1
#> 6 Fold01  5.10   116       4.98 Preprocessor1_Model1
#> # … with 2,336 more rows
```
…
# Test it using: 
# get_model(lm_fit)
```

Now let's apply this function to the ten resampled fits. The results of the extraction function is wrapped in a list object and returned in a tibble:


```r
ctrl <- control_resamples(extract = get_model)

lm_res <- lm_wflow %>%  fit_resamples(resamples = ames_folds, control = ctrl)
lm_res
#> # Resampling results
#> # 10-fold cross-validation 
#> # A tibble: 10 × 5
#>   splits             id     .metrics         .notes           .extracts       
#>   <list>             <chr>  <list>           <list>           <list>          
#> 1 <split [2107/235]> Fold01 <tibble [2 × 4]> <tibble [0 × 1]> <tibble [1 × 2]>
#> 2 <split [2107/235]> Fold02 <tibble [2 × 4]> <tibble [0 × 1]> <tibble [1 × 2]>
#> 3 <split [2108/234]> Fold03 <tibble [2 × 4]> <tibble [0 × 1]> <tibble [1 × 2]>
#> 4 <split [2108/234]> Fold04 <tibble [2 × 4]> <tibble [0 × 1]> <tibble [1 × 2]>
#> 5 <split [2108/234]> Fold05 <tibble [2 × 4]> <tibble [0 × 1]> <tibble [1 × 2]>
#> 6 <split [2108/234]> Fold06 <tibble [2 × 4]> <tibble [0 × 1]> <tibble [1 × 2]>
#> # … with 4 more rows
```

Now there is a `.extracts` column with nested tibbles. What do these contain? 


```r
lm_res$.extracts[[1]]
#> # A tibble: 1 × 2
#>   .extracts         .config             
#>   <list>            <chr>               
#> 1 <tibble [73 × 5]> Preprocessor1_Model1

# To get the results
lm_res$.extracts[[1]][[1]]
#> [[1]]
#> # A tibble: 73 × 5
#>   term                        estimate  std.error statistic   p.value
#>   <chr>                          <dbl>      <dbl>     <dbl>     <dbl>
#> 1 (Intercept)                 1.29     0.323         3.99   6.86e-  5
#> 2 Gr_Liv_Area                 0.000159 0.00000464   34.4    1.19e-204
#> 3 Year_Built                  0.00188  0.000148     12.7    1.25e- 35
#> 4 Neighborhood_College_Creek -0.00264  0.0375       -0.0706 9.44e-  1
#> 5 Neighborhood_Old_Town      -0.0834   0.0143       -5.85   5.86e-  9
#> 6 Neighborhood_Edwards       -0.108    0.0311       -3.48   5.04e-  4
#> # … with 67 more rows
```

This might appear to be a convoluted method for saving the model results. However, `extract` is flexible and does not assume that the user will only save a single tibble per resample. For example, the `tidy()` method might be run on the recipe as well as the model. In this case, a list of two tibbles will be returned. 

For our more simple example, all of the results can be flattened and collected using:


```r
all_coef <- map_dfr(lm_res$.extracts, ~ .x[[1]][[1]])
# Show the replicates for a single predictor:
filter(all_coef, term == "Year_Built")
#> # A tibble: 10 × 5
#>   term       estimate std.error statistic  p.value
#>   <chr>         <dbl>     <dbl>     <dbl>    <dbl>
#> 1 Year_Built  0.00188  0.000148      12.7 1.25e-35
#> 2 Year_Built  0.00184  0.000149      12.3 8.30e-34
#> 3 Year_Built  0.00185  0.000147      12.5 8.52e-35
#> 4 Year_Built  0.00192  0.000153      12.5 8.08e-35
#> 5 Year_Built  0.00183  0.000147      12.5 2.38e-34
#> 6 Year_Built  0.00194  0.000148      13.2 5.61e-38
#> # … with 4 more rows
```
…
